STAT167 HW5 - Spring 2021
…
(i) [10pt] Count the number of flights per destination

How many unique destination airports did these NYC flights connected to? How many non-canceled flights per destination? Which destination had the largest number of arrival flights from NYC? Which destination had the smallest number of arrival flights from NYC?

Note: Recall in HW4 we have cleaned the flights data by removing flight record that has missing values in dep_delay or arr_delay, and save the result as the non-canceled flights.

INSERT_YOUR_ANSWER

all_flights_count <- flights %>%
  group_by(carrier, dest) %>%
  count(carrier, dest)
all_flights_count

## # A tibble: 314 x 3
## # Groups:   carrier, dest [314]
##    carrier dest      n
##    <chr>   <chr> <int>
##  1 9E      ATL      59
##  2 9E      AUS       2
##  3 9E      AVL      10
##  4 9E      BGR       1
##  5 9E      BNA     474
##  6 9E      BOS     914
##  7 9E      BTV       2
##  8 9E      BUF     833
##  9 9E      BWI     856
## 10 9E      CAE       3
## # ... with 304 more rows

# There are a total of 314 unique destinations

not_canceled <- filter(flights, !is.na(dep_delay), !is.na(arr_delay))
noncanceled_flight_count <- 
  not_canceled %>%
  group_by(carrier, dest) %>%
  count(carrier, dest)
# Display the number of flights per destination

noncanceled_flight_count %>%
  arrange(desc(n))

## # A tibble: 312 x 3
## # Groups:   carrier, dest [312]
##    carrier dest      n
##    <chr>   <chr> <int>
##  1 DL      ATL   10452
##  2 US      CLT    8498
##  3 AA      MIA    7143
##  4 AA      DFW    6966
##  5 UA      IAH    6814
##  6 UA      ORD    6744
##  7 UA      SFO    6728
##  8 B6      FLL    6466
##  9 B6      MCO    6409
## 10 AA      ORD    5846
## # ... with 302 more rows

# The largest number of flights were to ATL

noncanceled_flight_count %>%
  arrange(n)

## # A tibble: 312 x 3
## # Groups:   carrier, dest [312]
##    carrier dest      n
##    <chr>   <chr> <int>
##  1 9E      GSO       1
##  2 9E      LEX       1
##  3 9E      MSN       1
##  4 DL      BNA       1
##  5 DL      JAX       1
##  6 DL      OMA       1
##  7 DL      STL       1
##  8 EV      TPA       1
##  9 OO      IAD       1
## 10 OO      ORD       1
## # ... with 302 more rows
…
## Rows: 1,458
## Columns: 8
## $ faa   <chr> "04G", "06A", "06C", "06N", "09J", "0A9", "0G6", "0G7", "0P2"...
## $ name  <chr> "Lansdowne Airport", "Moton Field Municipal Airport", "Schaum...
## $ lat   <dbl> 41.13047, 32.46057, 41.98934, 41.43191, 31.07447, 36.37122, 4...
## $ lon   <dbl> -80.61958, -85.68003, -88.10124, -74.39156, -81.42778, -82.17...
## $ alt   <dbl> 1044, 264, 801, 523, 11, 1593, 730, 492, 1000, 108, 409, 875,...
## $ tz    <dbl> -5, -6, -6, -5, -5, -5, -5, -5, -5, -8, -5, -6, -5, -5, -5, -...
## $ dst   <chr> "A", "A", "A", "A", "A", "A", "A", "A", "U", "A", "A", "U", "...
## $ tzone <chr> "America/New_York", "America/Chicago", "America/Chicago", "Am...

all_data <- left_join(per_dest, airports, by=c("dest"="faa")) # create a data frame from per_dest and airports
all_data # print to check

## # A tibble: 312 x 10
## # Groups:   carrier, dest [312]
##    carrier dest      n name                lat   lon   alt    tz dst   tzone    
##    <chr>   <chr> <int> <chr>             <dbl> <dbl> <dbl> <dbl> <chr> <chr>    
##  1 9E      ATL      56 Hartsfield Jacks~  33.6 -84.4  1026    -5 A     America/~
##  2 9E      AUS       2 Austin Bergstrom~  30.2 -97.7   542    -6 A     America/~
##  3 9E      AVL      10 Asheville Region~  35.4 -82.5  2165    -5 A     America/~
##  4 9E      BNA     452 Nashville Intl     36.1 -86.7   599    -6 A     America/~
##  5 9E      BOS     853 General Edward L~  42.4 -71.0    19    -5 A     America/~
##  6 9E      BTV       2 Burlington Intl    44.5 -73.2   335    -5 A     America/~
##  7 9E      BUF     789 Buffalo Niagara ~  42.9 -78.7   724    -5 A     America/~
##  8 9E      BWI     815 Baltimore Washin~  39.2 -76.7   146    -5 A     America/~
##  9 9E      CAE       3 Columbia Metropo~  33.9 -81.1   236    -5 A     America/~
## 10 9E      CHS     331 Charleston Afb I~  32.9 -80.0    45    -5 A     America/~
## # ... with 302 more rows
…
