STAT167 HW4 - Spring 2021
…
# You need to install the nycflights13 package first, then you can comment out the following line.
# install.packages("nycflights13")
library(nycflights13)
## Warning: package 'nycflights13' was built under R version 4.0.5

Question 1 [100pt] Exploratory data analysis of the nycflights13 data sets

In this question, we will take a close look at the nycflights13::flights data set which contains all 336,776 flights that departed from New York City in 2013. The data comes from the US Bureau of Transportation Statistics.

?flights # full documentation
## starting httpd help server ... done
# View(flights) # see the data in RStudio Viewer
flights
## # A tibble: 336,776 x 19
##     year month   day dep_time sched_dep_time dep_delay arr_time sched_arr_time
##    <int> <int> <int>    <int>          <int>     <dbl>    <int>          <int>
##  1  2013     1     1      517            515         2      830            819
##  2  2013     1     1      533            529         4      850            830
##  3  2013     1     1      542            540         2      923            850
##  4  2013     1     1      544            545        -1     1004           1022
##  5  2013     1     1      554            600        -6      812            837
##  6  2013     1     1      554            558        -4      740            728
##  7  2013     1     1      555            600        -5      913            854
##  8  2013     1     1      557            600        -3      709            723
##  9  2013     1     1      557            600        -3      838            846
## 10  2013     1     1      558            600        -2      753            745
## # ... with 336,766 more rows, and 11 more variables: arr_delay <dbl>,
## #   carrier <chr>, flight <int>, tailnum <chr>, origin <chr>, dest <chr>,
## #   air_time <dbl>, distance <dbl>, hour <dbl>, minute <dbl>, time_hour <dttm>

There are some missing values in the data set which were caused by canceled flights. You can clean the flights data by removing flight record that has missing values in dep_delay or arr_delay, and save the non-canceled flights in a new tibble not_canceled.

not_canceled <- filter(flights, !is.na(dep_delay), !is.na(arr_delay))
not_canceled
## # A tibble: 327,346 x 19
##     year month   day dep_time sched_dep_time dep_delay arr_time sched_arr_time
##    <int> <int> <int>    <int>          <int>     <dbl>    <int>          <int>
##  1  2013     1     1      517            515         2      830            819
##  2  2013     1     1      533            529         4      850            830
##  3  2013     1     1      542            540         2      923            850
##  4  2013     1     1      544            545        -1     1004           1022
##  5  2013     1     1      554            600        -6      812            837
##  6  2013     1     1      554            558        -4      740            728
##  7  2013     1     1      555            600        -5      913            854
##  8  2013     1     1      557            600        -3      709            723
##  9  2013     1     1      557            600        -3      838            846
## 10  2013     1     1      558            600        -2      753            745
## # ... with 327,336 more rows, and 11 more variables: arr_delay <dbl>,
## #   carrier <chr>, flight <int>, tailnum <chr>, origin <chr>, dest <chr>,
## #   air_time <dbl>, distance <dbl>, hour <dbl>, minute <dbl>, time_hour <dttm>
…
If not specified, flight delays usually refer to arrival delays.

(a) [15pt] Pick observations by their values - filter()

Find the non-canceled flights that satisfy each of the following conditions.

Had an arrival delay of two or more hours

ANSWER

# fliter flights by arrival delay over two hours 
filter(not_canceled, arr_delay >= 120)

## # A tibble: 10,200 x 19
##     year month   day dep_time sched_dep_time dep_delay arr_time sched_arr_time
##    <int> <int> <int>    <int>          <int>     <dbl>    <int>          <int>
##  1  2013     1     1      811            630       101     1047            830
##  2  2013     1     1      848           1835       853     1001           1950
##  3  2013     1     1      957            733       144     1056            853
##  4  2013     1     1     1114            900       134     1447           1222
##  5  2013     1     1     1505           1310       115     1638           1431
##  6  2013     1     1     1525           1340       105     1831           1626
##  7  2013     1     1     1549           1445        64     1912           1656
##  8  2013     1     1     1558           1359       119     1718           1515
##  9  2013     1     1     1732           1630        62     2028           1825
## 10  2013     1     1     1803           1620       103     2008           1750
## # ... with 10,190 more rows, and 11 more variables: arr_delay <dbl>,
## #   carrier <chr>, flight <int>, tailnum <chr>, origin <chr>, dest <chr>,
## #   air_time <dbl>, distance <dbl>, hour <dbl>, minute <dbl>, time_hour <dttm>

Were operated by United, American, or Delta

ANSWER

# filter flights by operators of UA, AA, DL
filter(not_canceled, carrier == "UA" | carrier == "AA" | carrier == "DL")

## # A tibble: 137,387 x 19
##     year month   day dep_time sched_dep_time dep_delay arr_time sched_arr_time
##    <int> <int> <int>    <int>          <int>     <dbl>    <int>          <int>
##  1  2013     1     1      517            515         2      830            819
##  2  2013     1     1      533            529         4      850            830
##  3  2013     1     1      542            540         2      923            850
##  4  2013     1     1      554            600        -6      812            837
##  5  2013     1     1      554            558        -4      740            728
##  6  2013     1     1      558            600        -2      753            745
##  7  2013     1     1      558            600        -2      924            917
##  8  2013     1     1      558            600        -2      923            937
##  9  2013     1     1      559            600        -1      941            910
## 10  2013     1     1      559            600        -1      854            902
## # ... with 137,377 more rows, and 11 more variables: arr_delay <dbl>,
## #   carrier <chr>, flight <int>, tailnum <chr>, origin <chr>, dest <chr>,
## #   air_time <dbl>, distance <dbl>, hour <dbl>, minute <dbl>, time_hour <dttm>

Arrived more than two hours late, but didnt leave late

ANSWER

# filter flights by arravial delay over two hours and no departure delay
filter(not_canceled, arr_delay > 120, dep_delay <= 000)

## # A tibble: 29 x 19
##     year month   day dep_time sched_dep_time dep_delay arr_time sched_arr_time
##    <int> <int> <int>    <int>          <int>     <dbl>    <int>          <int>
##  1  2013     1    27     1419           1420        -1     1754           1550
##  2  2013    10     7     1350           1350         0     1736           1526
##  3  2013    10     7     1357           1359        -2     1858           1654
##  4  2013    10    16      657            700        -3     1258           1056
##  5  2013    11     1      658            700        -2     1329           1015
##  6  2013     3    18     1844           1847        -3       39           2219
##  7  2013     4    17     1635           1640        -5     2049           1845
##  8  2013     4    18      558            600        -2     1149            850
##  9  2013     4    18      655            700        -5     1213            950
## 10  2013     5    22     1827           1830        -3     2217           2010
## # ... with 19 more rows, and 11 more variables: arr_delay <dbl>, carrier <chr>,
## #   flight <int>, tailnum <chr>, origin <chr>, dest <chr>, air_time <dbl>,
## #   distance <dbl>, hour <dbl>, minute <dbl>, time_hour <dttm>

Departed between midnight and 6am (inclusive)

ANSWER

# filter flights by departure time after midnight and 6 am 
filter(not_canceled, dep_time >= 000 && dep_time < 600)

## # A tibble: 327,346 x 19
##     year month   day dep_time sched_dep_time dep_delay arr_time sched_arr_time
##    <int> <int> <int>    <int>          <int>     <dbl>    <int>          <int>
##  1  2013     1     1      517            515         2      830            819
##  2  2013     1     1      533            529         4      850            830
##  3  2013     1     1      542            540         2      923            850
##  4  2013     1     1      544            545        -1     1004           1022
##  5  2013     1     1      554            600        -6      812            837
##  6  2013     1     1      554            558        -4      740            728
##  7  2013     1     1      555            600        -5      913            854
##  8  2013     1     1      557            600        -3      709            723
##  9  2013     1     1      557            600        -3      838            846
## 10  2013     1     1      558            600        -2      753            745
## # ... with 327,336 more rows, and 11 more variables: arr_delay <dbl>,
## #   carrier <chr>, flight <int>, tailnum <chr>, origin <chr>, dest <chr>,
## #   air_time <dbl>, distance <dbl>, hour <dbl>, minute <dbl>, time_hour <dttm>

(b) [10pt] Reorder the rows - arrange()

Find the following non-canceled flights.

Find the top five most delayed flights. Report the flight date, origin, destination, carrier, flight number, and arrival delay.

ANSWER

# arrance flights by arravial delay in descending order
arrange(not_canceled, desc(arr_delay))

## # A tibble: 327,346 x 19
##     year month   day dep_time sched_dep_time dep_delay arr_time sched_arr_time
##    <int> <int> <int>    <int>          <int>     <dbl>    <int>          <int>
##  1  2013     1     9      641            900      1301     1242           1530
##  2  2013     6    15     1432           1935      1137     1607           2120
##  3  2013     1    10     1121           1635      1126     1239           1810
##  4  2013     9    20     1139           1845      1014     1457           2210
##  5  2013     7    22      845           1600      1005     1044           1815
##  6  2013     4    10     1100           1900       960     1342           2211
##  7  2013     3    17     2321            810       911      135           1020
##  8  2013     7    22     2257            759       898      121           1026
##  9  2013    12     5      756           1700       896     1058           2020
## 10  2013     5     3     1133           2055       878     1250           2215
## # ... with 327,336 more rows, and 11 more variables: arr_delay <dbl>,
## #   carrier <chr>, flight <int>, tailnum <chr>, origin <chr>, dest <chr>,
## #   air_time <dbl>, distance <dbl>, hour <dbl>, minute <dbl>, time_hour <dttm>

Find the flights traveled the longest by distance. What are the carrier, the origin airport, and the destination airport of these flights?

ANSWER

# arrange flights by distance in descending order
arrange(not_canceled, desc(distance))

## # A tibble: 327,346 x 19
##     year month   day dep_time sched_dep_time dep_delay arr_time sched_arr_time
##    <int> <int> <int>    <int>          <int>     <dbl>    <int>          <int>
##  1  2013     1     1      857            900        -3     1516           1530
##  2  2013     1     2      909            900         9     1525           1530
##  3  2013     1     3      914            900        14     1504           1530
##  4  2013     1     4      900            900         0     1516           1530
##  5  2013     1     5      858            900        -2     1519           1530
##  6  2013     1     6     1019            900        79     1558           1530
##  7  2013     1     7     1042            900       102     1620           1530
##  8  2013     1     8      901            900         1     1504           1530
##  9  2013     1     9      641            900      1301     1242           1530
## 10  2013     1    10      859            900        -1     1449           1530
## # ... with 327,336 more rows, and 11 more variables: arr_delay <dbl>,
## #   carrier <chr>, flight <int>, tailnum <chr>, origin <chr>, dest <chr>,
## #   air_time <dbl>, distance <dbl>, hour <dbl>, minute <dbl>, time_hour <dttm>

(c) [5pt] Pick variables by their names - select()

List at least three ways to select dep_time, dep_delay, arr_time, and arr_delay from non-canceled flights.

ANSWER

# select columns by name
select(not_canceled, dep_time, dep_delay, arr_delay)

## # A tibble: 327,346 x 3
##    dep_time dep_delay arr_delay
##       <int>     <dbl>     <dbl>
##  1      517         2        11
##  2      533         4        20
##  3      542         2        33
##  4      544        -1       -18
##  5      554        -6       -25
##  6      554        -4        12
##  7      555        -5        19
##  8      557        -3       -14
##  9      557        -3        -8
## 10      558        -2         8
## # ... with 327,336 more rows

# select by column nu,ber
select(not_canceled, c(4,6,9))

## # A tibble: 327,346 x 3
##    dep_time dep_delay arr_delay
##       <int>     <dbl>     <dbl>
##  1      517         2        11
##  2      533         4        20
##  3      542         2        33
##  4      544        -1       -18
##  5      554        -6       -25
##  6      554        -4        12
##  7      555        -5        19
##  8      557        -3       -14
##  9      557        -3        -8
## 10      558        -2         8
## # ... with 327,336 more rows

# select by removing all other columns
select(not_canceled, -c(1,2,3,5,7,8,10,11,12,13,14,15,16,17,18,19))

## # A tibble: 327,346 x 3
##    dep_time dep_delay arr_delay
##       <int>     <dbl>     <dbl>
##  1      517         2        11
##  2      533         4        20
##  3      542         2        33
##  4      544        -1       -18
##  5      554        -6       -25
##  6      554        -4        12
##  7      555        -5        19
##  8      557        -3       -14
##  9      557        -3        -8
## 10      558        -2         8
## # ... with 327,336 more rows
…
## 
## Attaching package: 'lubridate'

## The following objects are masked from 'package:base':
## 
##     date, intersect, setdiff, union

flights_time <- mutate(flights_time, 
                       new_arr_time = make_datetime(year, month, day, arr_time%/%100, arr_time%%100),
                       new_dep_time = make_datetime(year, month, day, dep_time%/%100, dep_time%%100),
                       new_flight_time = new_arr_time - new_dep_time)
flights_time

## # A tibble: 327,346 x 23
##     year month   day dep_time sched_dep_time dep_delay arr_time sched_arr_time
##    <int> <int> <int>    <int>          <int>     <dbl>    <int>          <int>
##  1  2013     1     1      517            515         2      830            819
##  2  2013     1     1      533            529         4      850            830
##  3  2013     1     1      542            540         2      923            850
##  4  2013     1     1      544            545        -1     1004           1022
##  5  2013     1     1      554            600        -6      812            837
##  6  2013     1     1      554            558        -4      740            728
##  7  2013     1     1      555            600        -5      913            854
##  8  2013     1     1      557            600        -3      709            723
##  9  2013     1     1      557            600        -3      838            846
## 10  2013     1     1      558            600        -2      753            745
## # ... with 327,336 more rows, and 15 more variables: arr_delay <dbl>,
## #   carrier <chr>, flight <int>, tailnum <chr>, origin <chr>, dest <chr>,
## #   air_time <dbl>, distance <dbl>, hour <dbl>, minute <dbl>, time_hour <dttm>,
## #   flight_time <int>, new_arr_time <dttm>, new_dep_time <dttm>,
## #   new_flight_time <drtn>
…
ANSWER

canceled <- 
  flights %>%
  group_by(month, day) %>%
  summarise(count = n(),
            canceled_flights = sum(is.na(dep_delay)),
            canceled_proportion = canceled_flights/count,
            avg_delay = mean(arr_delay, na.rm = T))

## `summarise()` has grouped output by 'month'. You can override using the `.groups` argument.

canceled

## # A tibble: 365 x 6
## # Groups:   month [12]
##    month   day count canceled_flights canceled_proportion avg_delay
##    <int> <int> <int>            <int>               <dbl>     <dbl>
##  1     1     1   842                4             0.00475    12.7  
##  2     1     2   943                8             0.00848    12.7  
##  3     1     3   914               10             0.0109      5.73 
##  4     1     4   915                6             0.00656    -1.93 
##  5     1     5   720                3             0.00417    -1.53 
##  6     1     6   832                1             0.00120     4.24 
##  7     1     7   933                3             0.00322    -4.95 
##  8     1     8   899                4             0.00445    -3.23 
##  9     1     9   902                5             0.00554    -0.264
## 10     1    10   932                3             0.00322    -5.90 
## # ... with 355 more rows
…
Which two days had the highest flight cancellation rates?

ANSWER

# arrange canceled flights by proportion 
arrange(canceled, desc(canceled_proportion))

## # A tibble: 365 x 6
## # Groups:   month [12]
##    month   day count canceled_flights canceled_proportion avg_delay
##    <int> <int> <int>            <int>               <dbl>     <dbl>
##  1     2     9   684              393               0.575      6.64
##  2     2     8   930              472               0.508     24.2 
##  3     5    23   988              221               0.224     62.0 
##  4    12    10   943              204               0.216     44.5 
##  5     9    12   992              192               0.194     58.9 
##  6     3     6   972              180               0.185      6.97
##  7     3     8   979              180               0.184     85.9 
##  8    12    14   692              125               0.181     46.4 
##  9    12     5   969              158               0.163     51.7 
## 10     6    28   994              123               0.124     45.0 
## # ... with 355 more rows
…
Which carrier had the least delays? Which carrier had the worst delays?

ANSWER It looks like the carrier with the worst delays was F9 and the carrier with the least delays was AS.

Is there a small n problem in your data analysis? Count the number of destinations per carrier.

Hint: Check out the count() function @ https://dplyr.tidyverse.org/reference/tally.html

ANSWER

# count the number of destinations by carrier and destination
not_canceled %>%
  count(carrier, dest) 

## # A tibble: 312 x 3
## # Groups:   carrier, dest [312]
##    carrier dest      n
##    <chr>   <chr> <int>
##  1 9E      ATL      56
##  2 9E      AUS       2
##  3 9E      AVL      10
##  4 9E      BNA     452
##  5 9E      BOS     853
##  6 9E      BTV       2
##  7 9E      BUF     789
##  8 9E      BWI     815
##  9 9E      CAE       3
## 10 9E      CHS     331
## # ... with 302 more rows
…
