Final Project Proposal
…
Video_Game_Data # Print to check

## # A tibble: 16,719 x 16
##    Name  Platform Year_of_Release Genre Publisher NA_Sales EU_Sales JP_Sales
##    <chr> <chr>    <chr>           <chr> <chr>        <dbl>    <dbl>    <dbl>
##  1 Wii ~ Wii      2006            Spor~ Nintendo      41.4    29.0      3.77
##  2 Supe~ NES      1985            Plat~ Nintendo      29.1     3.58     6.81
##  3 Mari~ Wii      2008            Raci~ Nintendo      15.7    12.8      3.79
##  4 Wii ~ Wii      2009            Spor~ Nintendo      15.6    10.9      3.28
##  5 Poke~ GB       1996            Role~ Nintendo      11.3     8.89    10.2 
##  6 Tetr~ GB       1989            Puzz~ Nintendo      23.2     2.26     4.22
##  7 New ~ DS       2006            Plat~ Nintendo      11.3     9.14     6.5 
##  8 Wii ~ Wii      2006            Misc  Nintendo      14.0     9.18     2.93
##  9 New ~ Wii      2009            Plat~ Nintendo      14.4     6.94     4.7 
## 10 Duck~ NES      1984            Shoo~ Nintendo      26.9     0.63     0.28
## # ... with 16,709 more rows, and 8 more variables: Other_Sales <dbl>,
## #   Global_Sales <dbl>, Critic_Score <dbl>, Critic_Count <dbl>,
## #   User_Score <chr>, User_Count <dbl>, Developer <chr>, Rating <chr>
…
